C:\Users\Lau Diana\workspace\TAM1Rest\src\test\java\org\app\service\ejb\test\TestDataServiceEJBArq.java
C:\Users\Lau Diana\workspace\TAM1Rest\src\test\java\org\app\service\ejb\test\TestInterviuDataServiceEJBArq.java
C:\Users\Lau Diana\workspace\TAM1Rest\src\test\java\org\app\service\rest\test\RESTfullResource.java
C:\Users\Lau Diana\workspace\TAM1Rest\src\test\java\org\app\service\ejb\test\TestIntrebareDataServiceEJBArq.java
C:\Users\Lau Diana\workspace\TAM1Rest\src\test\java\org\app\service\rest\test\TestRestResource.java
C:\Users\Lau Diana\workspace\TAM1Rest\src\test\java\org\app\service\ejb\test\TestCandidatDataServiceEJBArq.java
C:\Users\Lau Diana\workspace\TAM1Rest\src\test\java\org\app\service\ejb\test\TestCandidatInterviuDataServiceEJBArq.java
C:\Users\Lau Diana\workspace\TAM1Rest\src\test\java\org\app\service\ejb\test\TestDataServiceEJB.java
C:\Users\Lau Diana\workspace\TAM1Rest\src\test\java\org\app\service\ejb\test\DataServiceEJBFactory.java
