INDEX VERSION 1.3+C:\Users\Lau Diana\workspace\.metadata\.plugins\org.eclipse.wst.jsdt.core\indexes
2939540350.index
312147019.index
1506481058.index
4114681903.index
2556181544.index
1467395318.index
160602137.index
854933097.index
